Simon Chiu - Demographic Visual Analysis
…
# Filter out rows in fin_new for those participants
fin_new <- fin_new %>%
  filter(!participantId %in% participants_to_remove)

Currently, the data is in a long format, with each row representing 1 transaction. We will transform the data using pivot_wider() to a wide format instead.

fin_final <- fin_new %>%
  group_by(participantId, category, MonthYear) %>%
  summarise(Total = sum(amount))

fin_final

# A tibble: 21,627 × 4
# Groups:   participantId, category [3,702]
   participantId category  MonthYear Total
   <fct>         <fct>     <chr>     <dbl>
 1 0             Education 2022-03    38.0
 2 0             Education 2022-04    38.0
 3 0             Education 2022-05    38.0
 4 0             Education 2022-06    38.0
 5 0             Education 2022-07    38.0
 6 0             Education 2022-08    38.0
 7 0             Food      2022-03   253. 
 8 0             Food      2022-04   238. 
 9 0             Food      2022-05   251. 
10 0             Food      2022-06   247. 
# ℹ 21,617 more rows

fin_final <- pivot_wider(
  fin_final,names_from = category,values_from =Total)
fin_final

# A tibble: 5,118 × 8
# Groups:   participantId [853]
   participantId MonthYear Education  Food Recreation Shelter   Wage
   <fct>         <chr>         <dbl> <dbl>      <dbl>   <dbl>  <dbl>
 1 0             2022-03        38.0  253.       345.    555. 11932.
 2 0             2022-04        38.0  238.       219.    555.  8637.
 3 0             2022-05        38.0  251.       383.    555.  9048.
 4 0             2022-06        38.0  247.       444.    555.  9048.
 5 0             2022-07        38.0  255.      1047.    555.  8637.
 6 0             2022-08        38.0  250.       295.    555.  9459.
 7 1             2022-03        38.0  280.      1031.    555. 10359.
 8 1             2022-04        38.0  208.       504.    555.  7590.
 9 1             2022-05        38.0  165.       359.    555.  7951.
10 1             2022-06        38.0  228.       675.    555.  7951.
# ℹ 5,108 more rows
# ℹ 1 more variable: RentAdjustment <dbl>

fin_wide <- fin_final %>%
  pivot_wider(names_from = MonthYear, values_from = c(Education, Food, Recreation, Shelter, Wage, RentAdjustment))
fin_wide

# A tibble: 853 × 37
# Groups:   participantId [853]
   participantId `Education_2022-03` `Education_2022-04` `Education_2022-05`
   <fct>                       <dbl>               <dbl>               <dbl>
 1 0                            38.0                38.0                38.0
 2 1                            38.0                38.0                38.0
 3 2                            12.8                12.8                12.8
 4 3                            38.0                38.0                38.0
 5 4                            12.8                12.8                12.8
 6 5                            12.8                12.8                12.8
 7 6                            12.8                12.8                12.8
 8 7                            12.8                12.8                12.8
 9 8                            12.8                12.8                12.8
10 9                            91.1                91.1                91.1
# ℹ 843 more rows
# ℹ 33 more variables: `Education_2022-06` <dbl>, `Education_2022-07` <dbl>,
#   `Education_2022-08` <dbl>, `Food_2022-03` <dbl>, `Food_2022-04` <dbl>,
#   `Food_2022-05` <dbl>, `Food_2022-06` <dbl>, `Food_2022-07` <dbl>,
#   `Food_2022-08` <dbl>, `Recreation_2022-03` <dbl>,
#   `Recreation_2022-04` <dbl>, `Recreation_2022-05` <dbl>,
#   `Recreation_2022-06` <dbl>, `Recreation_2022-07` <dbl>, …
…
